R Notebook
…
Convert the rownames into a column and turn the data into long
format so that the data can be processed using ggplot2 (5%)

Long_SalesData <- SalesData %>% 
  rownames_to_column("Year") %>%
  pivot_longer(
    cols = Jan:Dec,
    names_to = "Month",
    values_to = "SalesValue"
  )
Long_SalesData

## # A tibble: 240 × 3
##    Year  Month SalesValue
##    <chr> <chr>      <int>
##  1 2003  Jan          349
##  2 2003  Feb          303
##  3 2003  Mar          216
##  4 2003  Apr          361
##  5 2003  May          331
##  6 2003  Jun          403
##  7 2003  Jul          252
##  8 2003  Aug          265
##  9 2003  Sep          289
## 10 2003  Oct          283
## # ℹ 230 more rows
…
1.  Determine whether to use a parametric or non-parametric test for these data.

Top_2_Sales <- Long_SalesData %>%
  filter(Year %in% Top_2_Years_mean_Names)
#check output:
Top_2_Sales

## # A tibble: 24 × 3
##    Year  Month SalesValue
##    <chr> <chr>      <int>
##  1 2021  Jan         1888
##  2 2021  Feb         2209
##  3 2021  Mar         1769
##  4 2021  Apr         1569
##  5 2021  May         2365
##  6 2021  Jun         1950
##  7 2021  Jul         2131
##  8 2021  Aug         1716
##  9 2021  Sep         2009
## 10 2021  Oct         2403
## # ℹ 14 more rows
…
